%YAML 1.1
%TAG !u! tag:unity3d.com,2011:
--- !u!1 &1718368717257445729
GameObject:
  m_ObjectHideFlags: 0
  m_CorrespondingSourceObject: {fileID: 0}
  m_PrefabInstance: {fileID: 0}
  m_PrefabAsset: {fileID: 0}
  serializedVersion: 6
  m_Component:
  - component: {fileID: 1770518690585698707}
  - component: {fileID: 3159038026928624808}
  m_Layer: 0
  m_Name: Checker
  m_TagString: Untagged
  m_Icon: {fileID: 0}
  m_NavMeshLayer: 0
  m_StaticEditorFlags: 0
  m_IsActive: 1
--- !u!4 &1770518690585698707
Transform:
  m_ObjectHideFlags: 0
  m_CorrespondingSourceObject: {fileID: 0}
  m_PrefabInstance: {fileID: 0}
  m_PrefabAsset: {fileID: 0}
  m_GameObject: {fileID: 1718368717257445729}
  m_LocalRotation: {x: -0, y: -0, z: -0, w: 1}
  m_LocalPosition: {x: -2.03, y: 1.1, z: -5.0712285}
  m_LocalScale: {x: 1.0594658, y: 6.7567563, z: 1}
  m_Children: []
  m_Father: {fileID: 2978974331293519860}
  m_RootOrder: 0
  m_LocalEulerAnglesHint: {x: 0, y: 0, z: 0}
--- !u!61 &3159038026928624808
BoxCollider2D:
  m_ObjectHideFlags: 0
  m_CorrespondingSourceObject: {fileID: 0}
  m_PrefabInstance: {fileID: 0}
  m_PrefabAsset: {fileID: 0}
  m_GameObject: {fileID: 1718368717257445729}
  m_Enabled: 1
  m_Density: 1
  m_Material: {fileID: 0}
  m_IsTrigger: 1
  m_UsedByEffector: 0
  m_UsedByComposite: 0
  m_Offset: {x: 1.9188805, y: 0.116296254}
  m_SpriteTilingProperty:
    border: {x: 0, y: 0, z: 0, w: 0}
    pivot: {x: 0, y: 0}
    oldSize: {x: 0, y: 0}
    newSize: {x: 0, y: 0}
    adaptiveTilingThreshold: 0
    drawMode: 0
    adaptiveTiling: 0
  m_AutoTiling: 0
  serializedVersion: 2
  m_Size: {x: 4.837761, y: 0.4417811}
  m_EdgeRadius: 0
--- !u!50 &2287668458331450268
Rigidbody2D:
  serializedVersion: 4
  m_ObjectHideFlags: 0
  m_CorrespondingSourceObject: {fileID: 0}
  m_PrefabInstance: {fileID: 0}
  m_PrefabAsset: {fileID: 0}
  m_GameObject: {fileID: 2978974331293519862}
  m_BodyType: 0
  m_Simulated: 1
  m_UseFullKinematicContacts: 0
  m_UseAutoMass: 0
  m_Mass: 3
  m_LinearDrag: 0
  m_AngularDrag: 0.05
  m_GravityScale: 0
  m_Material: {fileID: 0}
  m_Interpolate: 0
  m_SleepingMode: 1
  m_CollisionDetection: 0
  m_Constraints: 0
--- !u!114 &5422507793877439054
MonoBehaviour:
  m_ObjectHideFlags: 0
  m_CorrespondingSourceObject: {fileID: 0}
  m_PrefabInstance: {fileID: 0}
  m_PrefabAsset: {fileID: 0}
  m_GameObject: {fileID: 2978974331293519862}
  m_Enabled: 0
  m_EditorHideFlags: 0
  m_Script: {fileID: 11500000, guid: 55aa8e945b81a4ab9a4e807c242d9278, type: 3}
  m_Name: 
  m_EditorClassIdentifier: 
  speedy: 8
  speedx: 5
--- !u!1001 &1434282877686686755
PrefabInstance:
  m_ObjectHideFlags: 0
  serializedVersion: 2
  m_Modification:
    m_TransformParent: {fileID: 0}
    m_Modifications:
    - target: {fileID: 1894673092025187664, guid: d5bb0f9d1373c4199bf3199c5ff9cd92,
        type: 3}
      propertyPath: m_RootOrder
      value: 1
      objectReference: {fileID: 0}
    - target: {fileID: 4229137281802398672, guid: d5bb0f9d1373c4199bf3199c5ff9cd92,
        type: 3}
      propertyPath: m_SpriteTilingProperty.oldSize.x
      value: 5.12
      objectReference: {fileID: 0}
    - target: {fileID: 4229137281802398672, guid: d5bb0f9d1373c4199bf3199c5ff9cd92,
        type: 3}
      propertyPath: m_SpriteTilingProperty.oldSize.y
      value: 5.12
      objectReference: {fileID: 0}
    - target: {fileID: 4229137281802398672, guid: d5bb0f9d1373c4199bf3199c5ff9cd92,
        type: 3}
      propertyPath: m_SpriteTilingProperty.drawMode
      value: 0
      objectReference: {fileID: 0}
    - target: {fileID: 4229137281802398672, guid: d5bb0f9d1373c4199bf3199c5ff9cd92,
        type: 3}
      propertyPath: m_Offset.y
      value: -0.050866604
      objectReference: {fileID: 0}
    - target: {fileID: 4229137281802398672, guid: d5bb0f9d1373c4199bf3199c5ff9cd92,
        type: 3}
      propertyPath: m_Size.y
      value: 5.221733
      objectReference: {fileID: 0}
    - target: {fileID: 4229137281802398677, guid: d5bb0f9d1373c4199bf3199c5ff9cd92,
        type: 3}
      propertyPath: m_Name
      value: platform_square
      objectReference: {fileID: 0}
    - target: {fileID: 4229137281802398678, guid: d5bb0f9d1373c4199bf3199c5ff9cd92,
        type: 3}
      propertyPath: m_Sprite
      value: 
      objectReference: {fileID: 21300000, guid: 5fec01a7538d446cb8d847a83deec9a5,
        type: 3}
    - target: {fileID: 4229137281802398678, guid: d5bb0f9d1373c4199bf3199c5ff9cd92,
        type: 3}
      propertyPath: m_DrawMode
      value: 0
      objectReference: {fileID: 0}
    - target: {fileID: 4229137281802398679, guid: d5bb0f9d1373c4199bf3199c5ff9cd92,
        type: 3}
      propertyPath: m_LocalPosition.x
      value: -6.202
      objectReference: {fileID: 0}
    - target: {fileID: 4229137281802398679, guid: d5bb0f9d1373c4199bf3199c5ff9cd92,
        type: 3}
      propertyPath: m_LocalPosition.y
      value: -4.798
      objectReference: {fileID: 0}
    - target: {fileID: 4229137281802398679, guid: d5bb0f9d1373c4199bf3199c5ff9cd92,
        type: 3}
      propertyPath: m_LocalPosition.z
      value: 0
      objectReference: {fileID: 0}
    - target: {fileID: 4229137281802398679, guid: d5bb0f9d1373c4199bf3199c5ff9cd92,
        type: 3}
      propertyPath: m_LocalRotation.x
      value: 0
      objectReference: {fileID: 0}
    - target: {fileID: 4229137281802398679, guid: d5bb0f9d1373c4199bf3199c5ff9cd92,
        type: 3}
      propertyPath: m_LocalRotation.y
      value: 0
      objectReference: {fileID: 0}
    - target: {fileID: 4229137281802398679, guid: d5bb0f9d1373c4199bf3199c5ff9cd92,
        type: 3}
      propertyPath: m_LocalRotation.z
      value: 0
      objectReference: {fileID: 0}
    - target: {fileID: 4229137281802398679, guid: d5bb0f9d1373c4199bf3199c5ff9cd92,
        type: 3}
      propertyPath: m_LocalRotation.w
      value: 1
      objectReference: {fileID: 0}
    - target: {fileID: 4229137281802398679, guid: d5bb0f9d1373c4199bf3199c5ff9cd92,
        type: 3}
      propertyPath: m_RootOrder
      value: 0
      objectReference: {fileID: 0}
    - target: {fileID: 4229137281802398679, guid: d5bb0f9d1373c4199bf3199c5ff9cd92,
        type: 3}
      propertyPath: m_LocalEulerAnglesHint.x
      value: 0
      objectReference: {fileID: 0}
    - target: {fileID: 4229137281802398679, guid: d5bb0f9d1373c4199bf3199c5ff9cd92,
        type: 3}
      propertyPath: m_LocalEulerAnglesHint.y
      value: 0
      objectReference: {fileID: 0}
    - target: {fileID: 4229137281802398679, guid: d5bb0f9d1373c4199bf3199c5ff9cd92,
        type: 3}
      propertyPath: m_LocalEulerAnglesHint.z
      value: 0
      objectReference: {fileID: 0}
    - target: {fileID: 4229137281802398679, guid: d5bb0f9d1373c4199bf3199c5ff9cd92,
        type: 3}
      propertyPath: m_LocalScale.x
      value: 0.17746668
      objectReference: {fileID: 0}
    - target: {fileID: 4229137281802398679, guid: d5bb0f9d1373c4199bf3199c5ff9cd92,
        type: 3}
      propertyPath: m_LocalScale.y
      value: 0.14151634
      objectReference: {fileID: 0}
    - target: {fileID: 4229137281802398679, guid: d5bb0f9d1373c4199bf3199c5ff9cd92,
        type: 3}
      propertyPath: m_LocalScale.z
      value: 0.752983
      objectReference: {fileID: 0}
    m_RemovedComponents: []
  m_SourcePrefab: {fileID: 100100000, guid: d5bb0f9d1373c4199bf3199c5ff9cd92, type: 3}
--- !u!1 &2978974331293519862 stripped
GameObject:
  m_CorrespondingSourceObject: {fileID: 4229137281802398677, guid: d5bb0f9d1373c4199bf3199c5ff9cd92,
    type: 3}
  m_PrefabInstance: {fileID: 1434282877686686755}
  m_PrefabAsset: {fileID: 0}
--- !u!4 &2978974331293519860 stripped
Transform:
  m_CorrespondingSourceObject: {fileID: 4229137281802398679, guid: d5bb0f9d1373c4199bf3199c5ff9cd92,
    type: 3}
  m_PrefabInstance: {fileID: 1434282877686686755}
  m_PrefabAsset: {fileID: 0}
